<DEVCERT version="1.0"><CERTIFICATE type="DEVICE"><DATA><UNIQUEID private="1"></UNIQUEID><PUBLICKEY private="1"></PUBLICKEY><KEYDATA></KEYDATA></DATA><MSDRM_SIGNATURE_VALUE></MSDRM_SIGNATURE_VALUE><SYMSIGNATURE></SYMSIGNATURE></CERTIFICATE><FALLBACK><SECURITYVERSION>2.4.117.27</SECURITYVERSION><CERTIFICATE private="1"></CERTIFICATE></FALLBACK><CERTIFICATE type="GROUP"><DATA><NAME>SHV-E210S-SKT</NAME>
	<MANUFACTURER>SAMSUNG_ELECTRONICS</MANUFACTURER>
	<MAKE>SAMSUNG</MAKE>
	<DISTRIBUTOR>SKT</DISTRIBUTOR>
	<MODEL>SHV-E210S-HOPPIN</MODEL>
	<SECURITYLEVEL>2000</SECURITYLEVEL>
	<HARDWARE_VER_MAJOR>1</HARDWARE_VER_MAJOR>
	<HARDWARE_VER_MINOR>1</HARDWARE_VER_MINOR>
	<FIRMWARE_VER_MAJOR>1</FIRMWARE_VER_MAJOR>
	<FIRMWARE_VER_MINOR>01</FIRMWARE_VER_MINOR>
	<FEATURES>
		<TEMPLATE>0</TEMPLATE>
		<CLOCK>2</CLOCK>
		<SECURECLOCK>
			<URL>http://go.microsoft.com/fwlink/?LinkId=25817</URL>
			<PUBLICKEY>!CNhvvz1WaNV1AFUmetxkvm9iD4UrE9cnGUi!qcqdxMiXmD1*ikYGA==</PUBLICKEY>
		</SECURECLOCK>
		<METERING>1</METERING>
		<SYMMETRIC_OPT>1</SYMMETRIC_OPT>
		<LICENSE_ACQ>1</LICENSE_ACQ>
		<LICENSE_SYNC>1</LICENSE_SYNC>
		<ENCRYPTION>1</ENCRYPTION>
	</FEATURES>
	<LIMITS>
		<MAXCHAINDEPTH>2</MAXCHAINDEPTH>
		<MAXLICENSESIZE>10240</MAXLICENSESIZE>
		<MAXHEADERSIZE>5120</MAXHEADERSIZE>
	</LIMITS><PUBLICKEY>jjzYFTzoNymiLGfEmuBowBHmkF9fQK9wXL0bbTTEO5J8by8sKqgvKw==</PUBLICKEY></DATA><MSDRM_SIGNATURE_VALUE>vMXo6Bi1dHuF9uCbDVv49VFRHSuPUK1L/fugvozdYYTDp7LZGVAZTw==</MSDRM_SIGNATURE_VALUE></CERTIFICATE><CERTIFICATE type="AUTHORIZATION"><DATA><SECURITYLEVEL>2000</SECURITYLEVEL><AUTH_ID>4221</AUTH_ID><PUBLICKEY>/T2FrnWUTQwWBHHQJNPmL1JhO4csmfV4hCGG936gCnlAzNiuN5y4hg==</PUBLICKEY></DATA><MSDRM_SIGNATURE_VALUE>HDuD7xvlNtERQ73hDygJMGACVjAy8XmrOIpVMMbn8SPig0CWUCM9WQ==</MSDRM_SIGNATURE_VALUE></CERTIFICATE><CERTIFICATE type="AUTHORIZATION_ROOT"><DATA><AUTH_ID>1</AUTH_ID><PUBLICKEY>a1t3hxrg!qbOgktnbYaEEi4teCse!gz6RvTPuC!zizKJlpU7xoduSw==</PUBLICKEY></DATA><MSDRM_SIGNATURE_VALUE>tqaPIt6m2g0VvpPzvc0HUgT9MDI0bPxb1ylZacxNl5BnCWP9CCZhfw==</MSDRM_SIGNATURE_VALUE></CERTIFICATE></DEVCERT>